avs, first_name,last_name,year_of_birth,gender,mg/L
348.5172.9030.72,Brian,Mckee,2009,M,1.45
623.1985.9675.49,Eugene,Levesque,1999,F,1.69
298.2721.2882.64,Tyler,Hesse,2019,M,0.67
422.7735.2010.90,Dixie,Burton,2022,F,1.54
190.6502.2943.46,Beatrice,Iredale,1993,F,1.12
429.4125.3558.59,Darwin,Zunich,2001,M,1.4
536.8526.3158.45,Juanita,Nicholas,2015,F,2.16
653.1295.6901.90,Evelyn,Gagnon,2010,F,0.76
615.9057.9094.35,Sal,Quigley,1991,M,0.53
223.4265.3354.54,Charles,Foster,1980,M,0.95
211.7313.9867.82,Michael,Jones,2019,M,0.7
302.7122.8730.46,Holly,Stacey,1984,F,0.56
129.6980.4014.12,Johnny,Jeffrey,1998,M,1.52
513.1530.7870.60,Bethany,Tyler,1998,F,1.95
699.1874.2333.56,John,Simpson,1987,M,0.62
571.5702.9105.34,Emily,Lewis,2004,F,0.87
132.1977.4834.92,Richard,Sawyer,1994,M,0.69
377.1761.4925.72,Nancy,Christian,2023,F,2.33
805.5765.1036.77,Daniel,Brown,1991,M,1.58
210.4896.8976.78,Julius,Carter,2020,M,1.56
691.1470.7016.22,Kenneth,Cruz,1989,M,0.97
195.4258.9648.78,Richard,Plagmann,2008,M,1.07
497.8765.7301.37,Cynthia,Creekmore,2014,F,1.7
734.6488.3501.32,Vicki,Brown,2012,F,1.34
457.3721.1150.50,Richard,Draper,2023,M,2.22
878.9479.8769.13,Alisa,Tarrant,2000,F,1.84
694.2471.3181.97,Aaron,Signs,1999,M,1.17
891.1339.4352.76,Pete,Liddell,1984,M,1.33
639.4881.4826.46,Lillian,Stennett,2022,F,1.91
231.1279.7369.25,Kenneth,Donovan,1995,M,1.77
377.6892.2467.44,Nancy,Beasley,2007,F,1.45
292.5325.5547.36,Maurice,Thibodeau,2003,M,1.18
273.6112.6552.78,Jason,Peach,2018,M,0.68
790.4059.4766.30,Sean,Stewart,2009,M,1.52
122.7198.5600.17,Julianne,Phillips,1996,F,1.48
644.9262.4098.26,Carol,Newman,2012,F,1.91
872.6357.4546.37,Brian,Wheeler,2002,M,0.78
791.1074.5223.92,Ronnie,Smith,1988,M,1.58
370.3781.4846.81,Marvin,Hodge,2012,M,2.34
240.9729.3147.20,Jennifer,Hutson,1990,F,2.09
708.3971.6444.93,Tanya,Swenson,1984,F,1.38
641.4150.8026.83,Joshua,Fendler,2016,M,1.0
868.2193.2818.13,Desiree,Patterson,2009,F,1.44
811.7499.5369.96,Daniel,Folk,2008,M,1.55
925.6463.2871.96,Kathryn,Burgett,2002,F,0.75
237.4947.6390.87,Jeffery,Snow,1983,M,1.26
233.7994.6356.98,Paula,Truong,2016,F,0.65
213.9301.5320.51,Diana,Cervantes,2012,F,2.13
384.4550.6480.28,Jennie,Szymanski,1990,F,1.45
813.9050.5834.55,Michael,Spencer,1990,M,1.12
879.4984.2377.86,Georgianna,Fisk,2021,F,2.07
772.7599.4729.50,Kristie,Medlar,1991,F,1.05
139.7743.1275.48,Kieth,Brown,1985,M,1.16
583.5305.8604.93,Geneva,Cummings,2000,F,0.62
807.6525.4209.82,John,Aucoin,1990,M,1.39
796.4023.9204.25,Robert,Parker,2005,M,0.77
471.6543.7073.40,John,Davis,2004,M,1.77
885.2549.4305.93,Barbara,Gray,2004,F,2.28
520.1552.4170.87,Margie,Robinson,1999,F,0.74
385.6926.4214.67,David,Smith,2006,M,1.14
744.5971.4889.99,Herminia,Lane,2022,F,1.44
675.1423.1970.38,Tressie,Gregg,2003,F,1.99
216.2392.3093.24,Christopher,Schuld,2019,M,0.58
598.3705.9688.81,Cruz,Mcdaniel,1995,M,1.92
540.3252.8091.78,Richard,Joyner,1983,M,0.66
899.7425.8058.88,Lacie,Miller,1983,F,1.73
214.1424.7156.17,Jenna,Santamaria,1999,F,1.79
759.7518.3539.37,Heidi,Alvear,1982,F,1.76
711.1899.9582.20,Christopher,Newsome,2010,M,0.98
600.6453.9447.44,Sammie,Wescott,2000,M,1.43
569.4545.1367.96,Vivian,Kaul,2009,F,2.04
563.8347.6455.22,Sally,Hollon,2001,F,1.41
585.2946.8969.88,Mary,Lainhart,2012,F,0.58
723.7502.3518.42,Alpha,Lecy,1986,F,1.55
939.5570.7425.21,James,Stover,1991,M,1.16
352.8724.6479.80,Eddie,West,2011,M,0.93
212.2048.3002.68,Norma,Felton,1994,F,2.14
595.9945.8189.54,Tawanna,Schontz,1981,F,1.62
604.9629.1021.15,Nell,Taylor,1985,F,0.93
833.3104.4089.46,Franklin,Tookes,2013,M,1.18
208.7859.3759.98,Rex,Johnson,2014,M,1.6
948.4333.1492.75,Evelyn,Lown,2007,F,2.39
759.5075.5179.65,Brent,Smith,1997,M,1.4
706.7373.3757.50,Cory,Simmers,2010,M,0.68
382.2633.2960.85,David,Westman,1987,M,1.68
722.5601.3950.29,Steven,Hazlewood,1991,M,0.6
878.5150.2712.93,Sandra,Haines,1992,F,1.95
939.9916.2823.73,Kevin,Seutter,1983,M,0.88
628.2023.8999.58,John,Cutler,1984,M,1.41
366.9229.8964.36,Thomas,Goldblatt,2007,M,2.45
475.1169.3920.97,Kevin,Carlton,1991,M,0.78
328.1627.5933.44,Monique,Anderson,2010,F,1.32
602.5029.5701.48,Candy,Wilson,2014,F,1.78
924.6790.7826.41,Minnie,Babino,1990,F,0.83
177.1570.5951.91,Margaret,Neal,2016,F,2.44
303.3051.8263.35,January,Hauger,1984,F,1.1
649.2860.3769.57,Marian,Williams,2010,F,0.97
854.6662.4386.74,Antonio,Cave,2015,M,0.98
601.7612.3516.32,Kyong,Hughes,2008,F,1.87
376.7141.7032.57,Anne,Worsham,1986,F,1.39
350.8393.6438.18,Richard,Green,1986,M,0.95
666.5964.3741.44,Mary,Gore,2011,F,1.51
991.6112.5373.32,Evelyn,Preston,1984,F,0.57
477.8989.2901.42,Rodney,Ricley,1992,M,0.66
970.6787.7721.72,Anthony,Skowron,2006,M,2.09
934.8097.3735.71,Thelma,Montero,1996,F,1.28
227.3954.9386.98,Lucia,Glynn,1991,F,2.13
856.9225.3260.20,Mary,Wyatt,2016,F,0.55
740.5943.8313.99,Temple,Riley,2014,F,1.06
186.6178.6863.25,Frederica,Dodson,1987,F,1.01
479.5480.3055.35,Cecelia,Monahan,2015,F,1.58
229.6973.7421.82,Robert,Mcgee,2001,M,0.95
785.2356.9704.28,Barbara,Caffee,2020,F,0.84
487.1557.9410.11,Gary,Cowan,2014,M,2.16
934.7725.9216.30,Melissa,Casavant,2000,F,2.2
630.9798.5418.27,Kristine,Barrett,1993,F,1.67
223.4315.2919.15,Harold,Sims,2001,M,1.92
343.7370.3405.89,Paul,Tucker,2010,M,0.68
542.8469.7042.18,Scott,Saenz,2013,M,2.39
947.8823.9528.98,Ruth,Eckel,2019,F,1.77
622.1359.5660.39,Robin,Stone,2019,F,1.92
408.3859.3483.28,Carroll,Jaeger,1989,M,2.03
566.6757.1200.24,Virginia,Vasquez,2015,F,1.9
756.6048.6233.58,Robert,Pellerin,2011,M,0.74
287.7809.9890.63,Charlie,Smith,1990,M,2.05
658.2577.9203.39,Bill,Carrasco,1991,M,0.81
699.3521.7789.32,Beatrice,Martine,2022,F,1.02
337.4694.8441.16,Barbara,Small,2009,F,1.47
642.7253.7235.38,Anthony,Smallwood,2001,M,0.81
261.8343.7893.19,Blair,Hammons,1991,M,1.49
269.6194.5512.37,Jerry,Felts,2020,M,2.17
874.7954.9077.70,William,Gabriele,1980,M,0.87
471.3908.6135.22,David,Smith,2011,M,0.82
520.9287.8369.73,Terry,Croteau,1985,M,0.76
238.2093.1745.45,Eunice,Humphreys,2008,F,0.72
624.6748.7768.40,Mary,Hutchinson,2016,M,2.79
686.5446.7919.10,Paul,James,2016,M,0.57
737.9295.8833.83,William,White,1983,M,1.53